-------------------------------------------------------------------------------
Test set: com.project.cs445.information.WriterTest
-------------------------------------------------------------------------------
Tests run: 4, Failures: 0, Errors: 0, Skipped: 0, Time elapsed: 0.006 sec
